PC=0000000000000000, REG[ 4]=0000000000001000
PC=0000000000000004, REG[ 1]=0000000000000005
PC=0000000000000008, REG[ 2]=0000000000000006
PC=000000000000000c, REG[ 5]=000000000000000b
PC=0000000000000010, REG[ 1]=0000000000000000
PC=0000000000000014, REG[ 2]=0000000000000004
PC=0000000000000018, REG[ 2]=0000000000000003
PC=000000000000001c, REG[ 6]=0000000000000003
PC=0000000000000020, REG[ 5]=0000000000000006
PC=0000000000000024, REG[ 7]=0000000000000009
PC=0000000000000028, REG[ 8]=0000000000000003
PC=000000000000002c, ---
PC=0000000000000030, REG[ 1]=0000000000000001
PC=0000000000000034, REG[ 2]=0000000000000002
PC=0000000000000038, REG[ 3]=0000000000000003
PC=000000000000003c, ---
PC=0000000000000040, ---
PC=0000000000000044, ---
